Chapter 8 Cross-references | R algorithm notes
…
## Rows: 72 Columns: 3

## ── Column specification ──────────────────────────────
## Delimiter: ","
## chr (1): TREAT
## dbl (2): IV, SUTW

## 
## ℹ Use `spec()` to retrieve the full column specification for this data.
## ℹ Specify the column types or set `show_col_types = FALSE` to quiet this message.

urchins

## # A tibble: 72 × 3
##    food_regime initial_volume width
##    <fct>                <dbl> <dbl>
##  1 Initial                3.5 0.01 
##  2 Initial                5   0.02 
##  3 Initial                8   0.061
##  4 Initial               10   0.051
##  5 Initial               13   0.041
##  6 Initial               13   0.061
##  7 Initial               15   0.041
##  8 Initial               15   0.071
##  9 Initial               16   0.092
## 10 Initial               17   0.051
## # … with 62 more rows
…
